Analyze pilot data for Jen
…
Convert data stream correct from wide to long format, and print a bit to verify it worked.

#need to melt corrStrm0,1,2 to make into long format so ggplot can plot all 3
library(tidyr)
dl<-dfAll %>% 
  gather(strm, corr, corrStrm0:corrStrm2) 
dl[,39:42]
#> # A tibble: 516 x 4
#>    numTargets pCorrAll strm       corr
#>         <dbl>    <dbl> <chr>     <dbl>
#>  1          3    0.333 corrStrm0     1
#>  2          3    0     corrStrm0     0
#>  3          3    0     corrStrm0     0
#>  4          2    0     corrStrm0     0
#>  5          3    1     corrStrm0     1
#>  6          3    0.667 corrStrm0     1
#>  7          2    1     corrStrm0    NA
#>  8          2    1     corrStrm0     1
#>  9          2    0     corrStrm0     0
#> 10          3    0.667 corrStrm0     1
#> # ... with 506 more rows
…
